A
A-
B+
A
B+
D+
A
C+
B+
B+
A-
B+
C+
B+
A-
B+
B
A
B-
A
A-
A
A
A
C+
D-
B+
C
B-
D+
D+
B+
C
C+
D+
B+
A
B+
B+
B+
B
B+
D-
B+
C
A
B+
B+
A
D+
B+
A-
A
A
D+
B+
B+
B
A
A
B+
A
A
A
B-
A
D+
B+
B+
A
B+
A-
B+
B+
B+
B+
B-
B+
A
B+
C
A
B+
B+
B+
B+
B+
B+
B-
D+
A
B+
B+
B+
A
A
A
B-
A
A-
A
A
B+
B-
D+
C
D+
B+
C+
C+
B+
A
B+
A
B
B+
C+
B+
B-
B+
B+
B+
B+
B+
B-
B+
D+
B+
B+
B+
D+
A
B+
A
C+
A
A-
B+
B+
A-
B+
B
B+
C+
A
B+
A
B+
B+
B+
C+
A
A
A
B-
A-
C+
C+
B
F
B-
B+
A
B+
D+
B+
A
C+
A
B+
B+
B+
B-
B-
A
B+
B+
C
D-
B+
B+
A
B+
B+
B
B+
A
B+
B+
B+
D-
B+
B+
A
B+
D+
B+
A
B+
A
B-
A-
A
B-
A
A
B+
B+
B-
B+
A
B+
B+
A
B+
A
B+
A
B+
D+
B+
B+
D+
B+
A
A
B-
B+
A
B-
D+
B+
B+
A
D+
A
B-
B-
A
B+
D+
A
B+
A
B+
B+
B+
A
B+
B
D+
B+
A
B+
B+
B-
D+
D+
B+
B+
C+
A
B+
B+
A
B+
A-
B+
B+
A
A
A
B+
B+
B+
C+
A
A
B
B+
B+
A
F
B+
B+
